{
  "page": 1,
  "per_page": 15,
  "photos": [
    {
      "id": 10292822,
      "width": 3024,
      "height": 4032,
      "url": "https://www.pexels.com/photo/brown-concrete-building-on-body-of-water-10292822/",
      "photographer": "Serkan Atay",
      "photographer_url": "https://www.pexels.com/@serkan-atay-120533903",
      "photographer_id": 120533903,
      "avg_color": "#C0CACC",
      "src": {
        "original": "https://images.pexels.com/photos/10292822/pexels-photo-10292822.jpeg",
        "large2x": "https://images.pexels.com/photos/10292822/pexels-photo-10292822.jpeg?auto=compress\u0026cs=tinysrgb\u0026dpr=2\u0026h=650\u0026w=940",
        "large": "https://images.pexels.com/photos/10292822/pexels-photo-10292822.jpeg?auto=compress\u0026cs=tinysrgb\u0026h=650\u0026w=940",
        "medium": "https://images.pexels.com/photos/10292822/pexels-photo-10292822.jpeg?auto=compress\u0026cs=tinysrgb\u0026h=350",
        "small": "https://images.pexels.com/photos/10292822/pexels-photo-10292822.jpeg?auto=compress\u0026cs=tinysrgb\u0026h=130",
        "portrait": "https://images.pexels.com/photos/10292822/pexels-photo-10292822.jpeg?auto=compress\u0026cs=tinysrgb\u0026fit=crop\u0026h=1200\u0026w=800",
        "landscape": "https://images.pexels.com/photos/10292822/pexels-photo-10292822.jpeg?auto=compress\u0026cs=tinysrgb\u0026fit=crop\u0026h=627\u0026w=1200",
        "tiny": "https://images.pexels.com/photos/10292822/pexels-photo-10292822.jpeg?auto=compress\u0026cs=tinysrgb\u0026dpr=1\u0026fit=crop\u0026h=200\u0026w=280"
      },
      "liked": false
    },
    {
      "id": 3192113,
      "width": 2688,
      "height": 4032,
      "url": "https://www.pexels.com/photo/green-grass-field-under-cloudy-sky-3192113/",
      "photographer": "Charlie CT",
      "photographer_url": "https://www.pexels.com/@charlie-ct-1670349",
      "photographer_id": 1670349,
      "avg_color": "#8E8C7D",
      "src": {
        "original": "https://images.pexels.com/photos/3192113/pexels-photo-3192113.jpeg",
        "large2x": "https://images.pexels.com/photos/3192113/pexels-photo-3192113.jpeg?auto=compress\u0026cs=tinysrgb\u0026dpr=2\u0026h=650\u0026w=940",
        "large": "https://images.pexels.com/photos/3192113/pexels-photo-3192113.jpeg?auto=compress\u0026cs=tinysrgb\u0026h=650\u0026w=940",
        "medium": "https://images.pexels.com/photos/3192113/pexels-photo-3192113.jpeg?auto=compress\u0026cs=tinysrgb\u0026h=350",
        "small": "https://images.pexels.com/photos/3192113/pexels-photo-3192113.jpeg?auto=compress\u0026cs=tinysrgb\u0026h=130",
        "portrait": "https://images.pexels.com/photos/3192113/pexels-photo-3192113.jpeg?auto=compress\u0026cs=tinysrgb\u0026fit=crop\u0026h=1200\u0026w=800",
        "landscape": "https://images.pexels.com/photos/3192113/pexels-photo-3192113.jpeg?auto=compress\u0026cs=tinysrgb\u0026fit=crop\u0026h=627\u0026w=1200",
        "tiny": "https://images.pexels.com/photos/3192113/pexels-photo-3192113.jpeg?auto=compress\u0026cs=tinysrgb\u0026dpr=1\u0026fit=crop\u0026h=200\u0026w=280"
      },
      "liked": false
    },
    {
      "id": 10220584,
      "width": 3648,
      "height": 5472,
      "url": "https://www.pexels.com/photo/woman-crouching-with-images-behind-10220584/",
      "photographer": "Ирина Демьяновских",
      "photographer_url": "https://www.pexels.com/@astreyas-photo",
      "photographer_id": 120057561,
      "avg_color": "#3F577B",
      "src": {
        "original": "https://images.pexels.com/photos/10220584/pexels-photo-10220584.jpeg",
        "large2x": "https://images.pexels.com/photos/10220584/pexels-photo-10220584.jpeg?auto=compress\u0026cs=tinysrgb\u0026dpr=2\u0026h=650\u0026w=940",
        "large": "https://images.pexels.com/photos/10220584/pexels-photo-10220584.jpeg?auto=compress\u0026cs=tinysrgb\u0026h=650\u0026w=940",
        "medium": "https://images.pexels.com/photos/10220584/pexels-photo-10220584.jpeg?auto=compress\u0026cs=tinysrgb\u0026h=350",
        "small": "https://images.pexels.com/photos/10220584/pexels-photo-10220584.jpeg?auto=compress\u0026cs=tinysrgb\u0026h=130",
        "portrait": "https://images.pexels.com/photos/10220584/pexels-photo-10220584.jpeg?auto=compress\u0026cs=tinysrgb\u0026fit=crop\u0026h=1200\u0026w=800",
        "landscape": "https://images.pexels.com/photos/10220584/pexels-photo-10220584.jpeg?auto=compress\u0026cs=tinysrgb\u0026fit=crop\u0026h=627\u0026w=1200",
        "tiny": "https://images.pexels.com/photos/10220584/pexels-photo-10220584.jpeg?auto=compress\u0026cs=tinysrgb\u0026dpr=1\u0026fit=crop\u0026h=200\u0026w=280"
      },
      "liked": false
    },
    {
      "id": 10243822,
      "width": 2048,
      "height": 3089,
      "url": "https://www.pexels.com/photo/bench-city-water-summer-10243822/",
      "photographer": "Диана Дунаева",
      "photographer_url": "https://www.pexels.com/@1434506",
      "photographer_id": 1434506,
      "avg_color": "#BABDA8",
      "src": {
        "original": "https://images.pexels.com/photos/10243822/pexels-photo-10243822.jpeg",
        "large2x": "https://images.pexels.com/photos/10243822/pexels-photo-10243822.jpeg?auto=compress\u0026cs=tinysrgb\u0026dpr=2\u0026h=650\u0026w=940",
        "large": "https://images.pexels.com/photos/10243822/pexels-photo-10243822.jpeg?auto=compress\u0026cs=tinysrgb\u0026h=650\u0026w=940",
        "medium": "https://images.pexels.com/photos/10243822/pexels-photo-10243822.jpeg?auto=compress\u0026cs=tinysrgb\u0026h=350",
        "small": "https://images.pexels.com/photos/10243822/pexels-photo-10243822.jpeg?auto=compress\u0026cs=tinysrgb\u0026h=130",
        "portrait": "https://images.pexels.com/photos/10243822/pexels-photo-10243822.jpeg?auto=compress\u0026cs=tinysrgb\u0026fit=crop\u0026h=1200\u0026w=800",
        "landscape": "https://images.pexels.com/photos/10243822/pexels-photo-10243822.jpeg?auto=compress\u0026cs=tinysrgb\u0026fit=crop\u0026h=627\u0026w=1200",
        "tiny": "https://images.pexels.com/photos/10243822/pexels-photo-10243822.jpeg?auto=compress\u0026cs=tinysrgb\u0026dpr=1\u0026fit=crop\u0026h=200\u0026w=280"
      },
      "liked": false
    },
    {
      "id": 10230681,
      "width": 3902,
      "height": 4877,
      "url": "https://www.pexels.com/photo/fashion-people-woman-relaxation-10230681/",
      "photographer": "Amina",
      "photographer_url": "https://www.pexels.com/@amina-79379327",
      "photographer_id": 79379327,
      "avg_color": "#495058",
      "src": {
        "original": "https://images.pexels.com/photos/10230681/pexels-photo-10230681.jpeg",
        "large2x": "https://images.pexels.com/photos/10230681/pexels-photo-10230681.jpeg?auto=compress\u0026cs=tinysrgb\u0026dpr=2\u0026h=650\u0026w=940",
        "large": "https://images.pexels.com/photos/10230681/pexels-photo-10230681.jpeg?auto=compress\u0026cs=tinysrgb\u0026h=650\u0026w=940",
        "medium": "https://images.pexels.com/photos/10230681/pexels-photo-10230681.jpeg?auto=compress\u0026cs=tinysrgb\u0026h=350",
        "small": "https://images.pexels.com/photos/10230681/pexels-photo-10230681.jpeg?auto=compress\u0026cs=tinysrgb\u0026h=130",
        "portrait": "https://images.pexels.com/photos/10230681/pexels-photo-10230681.jpeg?auto=compress\u0026cs=tinysrgb\u0026fit=crop\u0026h=1200\u0026w=800",
        "landscape": "https://images.pexels.com/photos/10230681/pexels-photo-10230681.jpeg?auto=compress\u0026cs=tinysrgb\u0026fit=crop\u0026h=627\u0026w=1200",
        "tiny": "https://images.pexels.com/photos/10230681/pexels-photo-10230681.jpeg?auto=compress\u0026cs=tinysrgb\u0026dpr=1\u0026fit=crop\u0026h=200\u0026w=280"
      },
      "liked": false
    },
    {
      "id": 10205573,
      "width": 3128,
      "height": 4412,
      "url": "https://www.pexels.com/photo/dried-yellow-flowers-taped-to-blue-wall-10205573/",
      "photographer": "Tetyana Kovyrina",
      "photographer_url": "https://www.pexels.com/@kovyrina",
      "photographer_id": 487,
      "avg_color": "#1D9BA7",
      "src": {
        "original": "https://images.pexels.com/photos/10205573/pexels-photo-10205573.jpeg",
        "large2x": "https://images.pexels.com/photos/10205573/pexels-photo-10205573.jpeg?auto=compress\u0026cs=tinysrgb\u0026dpr=2\u0026h=650\u0026w=940",
        "large": "https://images.pexels.com/photos/10205573/pexels-photo-10205573.jpeg?auto=compress\u0026cs=tinysrgb\u0026h=650\u0026w=940",
        "medium": "https://images.pexels.com/photos/10205573/pexels-photo-10205573.jpeg?auto=compress\u0026cs=tinysrgb\u0026h=350",
        "small": "https://images.pexels.com/photos/10205573/pexels-photo-10205573.jpeg?auto=compress\u0026cs=tinysrgb\u0026h=130",
        "portrait": "https://images.pexels.com/photos/10205573/pexels-photo-10205573.jpeg?auto=compress\u0026cs=tinysrgb\u0026fit=crop\u0026h=1200\u0026w=800",
        "landscape": "https://images.pexels.com/photos/10205573/pexels-photo-10205573.jpeg?auto=compress\u0026cs=tinysrgb\u0026fit=crop\u0026h=627\u0026w=1200",
        "tiny": "https://images.pexels.com/photos/10205573/pexels-photo-10205573.jpeg?auto=compress\u0026cs=tinysrgb\u0026dpr=1\u0026fit=crop\u0026h=200\u0026w=280"
      },
      "liked": false
    },
    {
      "id": 9741140,
      "width": 1945,
      "height": 3000,
      "url": "https://www.pexels.com/photo/abstract-white-brown-and-gray-painting-9741140/",
      "photographer": "Andrey Rasp",
      "photographer_url": "https://www.pexels.com/@andrewrasp",
      "photographer_id": 85163995,
      "avg_color": "#87827E",
      "src": {
        "original": "https://images.pexels.com/photos/9741140/pexels-photo-9741140.jpeg",
        "large2x": "https://images.pexels.com/photos/9741140/pexels-photo-9741140.jpeg?auto=compress\u0026cs=tinysrgb\u0026dpr=2\u0026h=650\u0026w=940",
        "large": "https://images.pexels.com/photos/9741140/pexels-photo-9741140.jpeg?auto=compress\u0026cs=tinysrgb\u0026h=650\u0026w=940",
        "medium": "https://images.pexels.com/photos/9741140/pexels-photo-9741140.jpeg?auto=compress\u0026cs=tinysrgb\u0026h=350",
        "small": "https://images.pexels.com/photos/9741140/pexels-photo-9741140.jpeg?auto=compress\u0026cs=tinysrgb\u0026h=130",
        "portrait": "https://images.pexels.com/photos/9741140/pexels-photo-9741140.jpeg?auto=compress\u0026cs=tinysrgb\u0026fit=crop\u0026h=1200\u0026w=800",
        "landscape": "https://images.pexels.com/photos/9741140/pexels-photo-9741140.jpeg?auto=compress\u0026cs=tinysrgb\u0026fit=crop\u0026h=627\u0026w=1200",
        "tiny": "https://images.pexels.com/photos/9741140/pexels-photo-9741140.jpeg?auto=compress\u0026cs=tinysrgb\u0026dpr=1\u0026fit=crop\u0026h=200\u0026w=280"
      },
      "liked": false
    },
    {
      "id": 9957305,
      "width": 3024,
      "height": 4032,
      "url": "https://www.pexels.com/photo/light-city-road-traffic-9957305/",
      "photographer": "Lina Sali",
      "photographer_url": "https://www.pexels.com/@linasali",
      "photographer_id": 121962158,
      "avg_color": "#363636",
      "src": {
        "original": "https://images.pexels.com/photos/9957305/pexels-photo-9957305.jpeg",
        "large2x": "https://images.pexels.com/photos/9957305/pexels-photo-9957305.jpeg?auto=compress\u0026cs=tinysrgb\u0026dpr=2\u0026h=650\u0026w=940",
        "large": "https://images.pexels.com/photos/9957305/pexels-photo-9957305.jpeg?auto=compress\u0026cs=tinysrgb\u0026h=650\u0026w=940",
        "medium": "https://images.pexels.com/photos/9957305/pexels-photo-9957305.jpeg?auto=compress\u0026cs=tinysrgb\u0026h=350",
        "small": "https://images.pexels.com/photos/9957305/pexels-photo-9957305.jpeg?auto=compress\u0026cs=tinysrgb\u0026h=130",
        "portrait": "https://images.pexels.com/photos/9957305/pexels-photo-9957305.jpeg?auto=compress\u0026cs=tinysrgb\u0026fit=crop\u0026h=1200\u0026w=800",
        "landscape": "https://images.pexels.com/photos/9957305/pexels-photo-9957305.jpeg?auto=compress\u0026cs=tinysrgb\u0026fit=crop\u0026h=627\u0026w=1200",
        "tiny": "https://images.pexels.com/photos/9957305/pexels-photo-9957305.jpeg?auto=compress\u0026cs=tinysrgb\u0026dpr=1\u0026fit=crop\u0026h=200\u0026w=280"
      },
      "liked": false
    },
    {
      "id": 10208801,
      "width": 3620,
      "height": 3426,
      "url": "https://www.pexels.com/photo/grayscale-photo-of-ocean-and-mountains-10208801/",
      "photographer": "Alexey Demidov",
      "photographer_url": "https://www.pexels.com/@theplanetspeaks",
      "photographer_id": 53796359,
      "avg_color": "#6D6D6D",
      "src": {
        "original": "https://images.pexels.com/photos/10208801/pexels-photo-10208801.jpeg",
        "large2x": "https://images.pexels.com/photos/10208801/pexels-photo-10208801.jpeg?auto=compress\u0026cs=tinysrgb\u0026dpr=2\u0026h=650\u0026w=940",
        "large": "https://images.pexels.com/photos/10208801/pexels-photo-10208801.jpeg?auto=compress\u0026cs=tinysrgb\u0026h=650\u0026w=940",
        "medium": "https://images.pexels.com/photos/10208801/pexels-photo-10208801.jpeg?auto=compress\u0026cs=tinysrgb\u0026h=350",
        "small": "https://images.pexels.com/photos/10208801/pexels-photo-10208801.jpeg?auto=compress\u0026cs=tinysrgb\u0026h=130",
        "portrait": "https://images.pexels.com/photos/10208801/pexels-photo-10208801.jpeg?auto=compress\u0026cs=tinysrgb\u0026fit=crop\u0026h=1200\u0026w=800",
        "landscape": "https://images.pexels.com/photos/10208801/pexels-photo-10208801.jpeg?auto=compress\u0026cs=tinysrgb\u0026fit=crop\u0026h=627\u0026w=1200",
        "tiny": "https://images.pexels.com/photos/10208801/pexels-photo-10208801.jpeg?auto=compress\u0026cs=tinysrgb\u0026dpr=1\u0026fit=crop\u0026h=200\u0026w=280"
      },
      "liked": false
    },
    {
      "id": 10210260,
      "width": 2563,
      "height": 3922,
      "url": "https://www.pexels.com/photo/low-angle-photography-of-high-rise-building-10210260/",
      "photographer": "Roman Verton",
      "photographer_url": "https://www.pexels.com/@roman-verton-83495362",
      "photographer_id": 83495362,
      "avg_color": "#777777",
      "src": {
        "original": "https://images.pexels.com/photos/10210260/pexels-photo-10210260.jpeg",
        "large2x": "https://images.pexels.com/photos/10210260/pexels-photo-10210260.jpeg?auto=compress\u0026cs=tinysrgb\u0026dpr=2\u0026h=650\u0026w=940",
        "large": "https://images.pexels.com/photos/10210260/pexels-photo-10210260.jpeg?auto=compress\u0026cs=tinysrgb\u0026h=650\u0026w=940",
        "medium": "https://images.pexels.com/photos/10210260/pexels-photo-10210260.jpeg?auto=compress\u0026cs=tinysrgb\u0026h=350",
        "small": "https://images.pexels.com/photos/10210260/pexels-photo-10210260.jpeg?auto=compress\u0026cs=tinysrgb\u0026h=130",
        "portrait": "https://images.pexels.com/photos/10210260/pexels-photo-10210260.jpeg?auto=compress\u0026cs=tinysrgb\u0026fit=crop\u0026h=1200\u0026w=800",
        "landscape": "https://images.pexels.com/photos/10210260/pexels-photo-10210260.jpeg?auto=compress\u0026cs=tinysrgb\u0026fit=crop\u0026h=627\u0026w=1200",
        "tiny": "https://images.pexels.com/photos/10210260/pexels-photo-10210260.jpeg?auto=compress\u0026cs=tinysrgb\u0026dpr=1\u0026fit=crop\u0026h=200\u0026w=280"
      },
      "liked": false
    },
    {
      "id": 10207815,
      "width": 4024,
      "height": 6048,
      "url": "https://www.pexels.com/photo/green-potted-plant-beside-blue-and-white-wooden-door-10207815/",
      "photographer": "Fotostudio -  All Eyes On You",
      "photographer_url": "https://www.pexels.com/@fotostudio-all-eyes-on-you-134458509",
      "photographer_id": 134458509,
      "avg_color": "#7A9DB0",
      "src": {
        "original": "https://images.pexels.com/photos/10207815/pexels-photo-10207815.jpeg",
        "large2x": "https://images.pexels.com/photos/10207815/pexels-photo-10207815.jpeg?auto=compress\u0026cs=tinysrgb\u0026dpr=2\u0026h=650\u0026w=940",
        "large": "https://images.pexels.com/photos/10207815/pexels-photo-10207815.jpeg?auto=compress\u0026cs=tinysrgb\u0026h=650\u0026w=940",
        "medium": "https://images.pexels.com/photos/10207815/pexels-photo-10207815.jpeg?auto=compress\u0026cs=tinysrgb\u0026h=350",
        "small": "https://images.pexels.com/photos/10207815/pexels-photo-10207815.jpeg?auto=compress\u0026cs=tinysrgb\u0026h=130",
        "portrait": "https://images.pexels.com/photos/10207815/pexels-photo-10207815.jpeg?auto=compress\u0026cs=tinysrgb\u0026fit=crop\u0026h=1200\u0026w=800",
        "landscape": "https://images.pexels.com/photos/10207815/pexels-photo-10207815.jpeg?auto=compress\u0026cs=tinysrgb\u0026fit=crop\u0026h=627\u0026w=1200",
        "tiny": "https://images.pexels.com/photos/10207815/pexels-photo-10207815.jpeg?auto=compress\u0026cs=tinysrgb\u0026dpr=1\u0026fit=crop\u0026h=200\u0026w=280"
      },
      "liked": false
    },
    {
      "id": 10206244,
      "width": 4000,
      "height": 6000,
      "url": "https://www.pexels.com/photo/white-ceramic-mug-on-white-book-page-10206244/",
      "photographer": "Anna Belousova",
      "photographer_url": "https://www.pexels.com/@anna-belousova-130658517",
      "photographer_id": 130658517,
      "avg_color": "#76736E",
      "src": {
        "original": "https://images.pexels.com/photos/10206244/pexels-photo-10206244.jpeg",
        "large2x": "https://images.pexels.com/photos/10206244/pexels-photo-10206244.jpeg?auto=compress\u0026cs=tinysrgb\u0026dpr=2\u0026h=650\u0026w=940",
        "large": "https://images.pexels.com/photos/10206244/pexels-photo-10206244.jpeg?auto=compress\u0026cs=tinysrgb\u0026h=650\u0026w=940",
        "medium": "https://images.pexels.com/photos/10206244/pexels-photo-10206244.jpeg?auto=compress\u0026cs=tinysrgb\u0026h=350",
        "small": "https://images.pexels.com/photos/10206244/pexels-photo-10206244.jpeg?auto=compress\u0026cs=tinysrgb\u0026h=130",
        "portrait": "https://images.pexels.com/photos/10206244/pexels-photo-10206244.jpeg?auto=compress\u0026cs=tinysrgb\u0026fit=crop\u0026h=1200\u0026w=800",
        "landscape": "https://images.pexels.com/photos/10206244/pexels-photo-10206244.jpeg?auto=compress\u0026cs=tinysrgb\u0026fit=crop\u0026h=627\u0026w=1200",
        "tiny": "https://images.pexels.com/photos/10206244/pexels-photo-10206244.jpeg?auto=compress\u0026cs=tinysrgb\u0026dpr=1\u0026fit=crop\u0026h=200\u0026w=280"
      },
      "liked": false
    },
    {
      "id": 10202772,
      "width": 4071,
      "height": 6107,
      "url": "https://www.pexels.com/photo/fashion-man-people-woman-10202772/",
      "photographer": "Oksana Kuz",
      "photographer_url": "https://www.pexels.com/@oksana-kuz-132622484",
      "photographer_id": 132622484,
      "avg_color": "#737373",
      "src": {
        "original": "https://images.pexels.com/photos/10202772/pexels-photo-10202772.jpeg",
        "large2x": "https://images.pexels.com/photos/10202772/pexels-photo-10202772.jpeg?auto=compress\u0026cs=tinysrgb\u0026dpr=2\u0026h=650\u0026w=940",
        "large": "https://images.pexels.com/photos/10202772/pexels-photo-10202772.jpeg?auto=compress\u0026cs=tinysrgb\u0026h=650\u0026w=940",
        "medium": "https://images.pexels.com/photos/10202772/pexels-photo-10202772.jpeg?auto=compress\u0026cs=tinysrgb\u0026h=350",
        "small": "https://images.pexels.com/photos/10202772/pexels-photo-10202772.jpeg?auto=compress\u0026cs=tinysrgb\u0026h=130",
        "portrait": "https://images.pexels.com/photos/10202772/pexels-photo-10202772.jpeg?auto=compress\u0026cs=tinysrgb\u0026fit=crop\u0026h=1200\u0026w=800",
        "landscape": "https://images.pexels.com/photos/10202772/pexels-photo-10202772.jpeg?auto=compress\u0026cs=tinysrgb\u0026fit=crop\u0026h=627\u0026w=1200",
        "tiny": "https://images.pexels.com/photos/10202772/pexels-photo-10202772.jpeg?auto=compress\u0026cs=tinysrgb\u0026dpr=1\u0026fit=crop\u0026h=200\u0026w=280"
      },
      "liked": false
    },
    {
      "id": 10163268,
      "width": 3648,
      "height": 5472,
      "url": "https://www.pexels.com/photo/woman-in-hat-standing-in-greenhouse-10163268/",
      "photographer": "Kasia Palitava",
      "photographer_url": "https://www.pexels.com/@kasia-palitava-132623147",
      "photographer_id": 132623147,
      "avg_color": "#7C8071",
      "src": {
        "original": "https://images.pexels.com/photos/10163268/pexels-photo-10163268.jpeg",
        "large2x": "https://images.pexels.com/photos/10163268/pexels-photo-10163268.jpeg?auto=compress\u0026cs=tinysrgb\u0026dpr=2\u0026h=650\u0026w=940",
        "large": "https://images.pexels.com/photos/10163268/pexels-photo-10163268.jpeg?auto=compress\u0026cs=tinysrgb\u0026h=650\u0026w=940",
        "medium": "https://images.pexels.com/photos/10163268/pexels-photo-10163268.jpeg?auto=compress\u0026cs=tinysrgb\u0026h=350",
        "small": "https://images.pexels.com/photos/10163268/pexels-photo-10163268.jpeg?auto=compress\u0026cs=tinysrgb\u0026h=130",
        "portrait": "https://images.pexels.com/photos/10163268/pexels-photo-10163268.jpeg?auto=compress\u0026cs=tinysrgb\u0026fit=crop\u0026h=1200\u0026w=800",
        "landscape": "https://images.pexels.com/photos/10163268/pexels-photo-10163268.jpeg?auto=compress\u0026cs=tinysrgb\u0026fit=crop\u0026h=627\u0026w=1200",
        "tiny": "https://images.pexels.com/photos/10163268/pexels-photo-10163268.jpeg?auto=compress\u0026cs=tinysrgb\u0026dpr=1\u0026fit=crop\u0026h=200\u0026w=280"
      },
      "liked": false
    },
    {
      "id": 10166950,
      "width": 2970,
      "height": 3039,
      "url": "https://www.pexels.com/photo/flowers-against-sky-10166950/",
      "photographer": "Lisa",
      "photographer_url": "https://www.pexels.com/@fotios-photos",
      "photographer_id": 26735,
      "avg_color": "#A08490",
      "src": {
        "original": "https://images.pexels.com/photos/10166950/pexels-photo-10166950.jpeg",
        "large2x": "https://images.pexels.com/photos/10166950/pexels-photo-10166950.jpeg?auto=compress\u0026cs=tinysrgb\u0026dpr=2\u0026h=650\u0026w=940",
        "large": "https://images.pexels.com/photos/10166950/pexels-photo-10166950.jpeg?auto=compress\u0026cs=tinysrgb\u0026h=650\u0026w=940",
        "medium": "https://images.pexels.com/photos/10166950/pexels-photo-10166950.jpeg?auto=compress\u0026cs=tinysrgb\u0026h=350",
        "small": "https://images.pexels.com/photos/10166950/pexels-photo-10166950.jpeg?auto=compress\u0026cs=tinysrgb\u0026h=130",
        "portrait": "https://images.pexels.com/photos/10166950/pexels-photo-10166950.jpeg?auto=compress\u0026cs=tinysrgb\u0026fit=crop\u0026h=1200\u0026w=800",
        "landscape": "https://images.pexels.com/photos/10166950/pexels-photo-10166950.jpeg?auto=compress\u0026cs=tinysrgb\u0026fit=crop\u0026h=627\u0026w=1200",
        "tiny": "https://images.pexels.com/photos/10166950/pexels-photo-10166950.jpeg?auto=compress\u0026cs=tinysrgb\u0026dpr=1\u0026fit=crop\u0026h=200\u0026w=280"
      },
      "liked": false
    }
  ],
  "total_results": 8000,
  "next_page": "https://api.pexels.com/v1/curated/?page=2\u0026per_page=15"
}